{
    "header": {
        "headerMenu": [
            {
                "name": "Статистика",
                "url": "/statistics"
            },
            {
                "name": "Справочники",
                "url": "/directories"
            },
            {
                "name": "Настройки",
                "url": "/settings"
            }
        ]
    }
}